…
    ## Warning: There were 43 warnings in `mutate()`.
    ## The first warning was:
    ## ℹ In argument: `results = map(data, homicide_sex_logit)`.
    ## Caused by warning:
    ## ! glm.fit: fitted probabilities numerically 0 or 1 occurred
    ## ℹ Run `dplyr::last_dplyr_warnings()` to see the 42 remaining warnings.

    ## Warning: `cols` is now required when using `unnest()`.
    ## ℹ Please use `cols = c(results)`.

``` r
homicide_sex
```

    ## # A tibble: 47 × 5
    ##    city_state      term           estimate conf.low conf.high
    ##    <chr>           <chr>             <dbl>    <dbl>     <dbl>
    ##  1 Albuquerque, NM victim_sexMale    1.77     0.825     3.76 
    ##  2 Atlanta, GA     victim_sexMale    1.00     0.680     1.46 
    ##  3 Baltimore, MD   victim_sexMale    0.426    0.324     0.558
    ##  4 Baton Rouge, LA victim_sexMale    0.381    0.204     0.684
    ##  5 Birmingham, AL  victim_sexMale    0.870    0.571     1.31 
    ##  6 Boston, MA      victim_sexMale    0.674    0.353     1.28 
    ##  7 Buffalo, NY     victim_sexMale    0.521    0.288     0.936
    ##  8 Charlotte, NC   victim_sexMale    0.884    0.551     1.39 
    ##  9 Chicago, IL     victim_sexMale    0.410    0.336     0.501
    ## 10 Cincinnati, OH  victim_sexMale    0.400    0.231     0.667
    ## # ℹ 37 more rows
…
``` r
# bootstrap for 5000 samples, fit linear model, and get estimates
bootstrap_weather = weather_df |> 
  bootstrap(n = 5000) |> 
  mutate(
    df = map(strap, as_tibble),
    models = map(df, \(df) lm(tmax ~ tmin + prcp, data = df) ),
    r2 = map_dbl(models, \(m) broom::glance(m)$r.squared),
    beta_ratio = map_dbl(models, get_beta_ratio)) |> 
  select(-strap, -models, -df)
bootstrap_weather
```

    ## # A tibble: 5,000 × 3
    ##    .id      r2 beta_ratio
    ##    <chr> <dbl>      <dbl>
    ##  1 0001  0.919      -318.
    ##  2 0002  0.929      -252.
    ##  3 0003  0.922      -342.
    ##  4 0004  0.915     -1277.
    ##  5 0005  0.905      -348.
    ##  6 0006  0.928      -245.
    ##  7 0007  0.922      -238.
    ##  8 0008  0.920      -521.
    ##  9 0009  0.917     -1349.
    ## 10 0010  0.907     -3664.
    ## # ℹ 4,990 more rows
…
